[
    {
        "name": "Social Chat",
        "type": "Development",
        "client": "Twitter India Corporation",
        "description": "Lorem Ipsum is simply dummy text of the printing and typesetting industry",
        "createdDate": "10-05-2020",
        "createdBy": "PM 2",
        "updatedDate": "11-05-2020",
        "updatedBy": "PM 1",
        "status": "NEW",
        "imgUrl": "String",
        "progress": 44,
        "nominees": [
            "User 1",
            "User 2"
        ],
        "projectDetailsFile": null
    },
    {
        "name": "Windows App",
        "type": "Testing",
        "client": "Microsoft India Limited",
        "description": "Lorem Ipsum is simply dummy text of the printing and typesetting industry",
        "createdDate": "12-05-2020",
        "createdBy": "PM 3",
        "updatedDate": "12-05-2020",
        "updatedBy": "PM 5",
        "status": "NEW",
        "imgUrl": "String",
        "progress": 44,
        "nominees": [
            "User 1",
            "User 2"
        ],
        "projectDetailsFile": null
    }
]